21.3,2021-12-01,21.3.1,Eric Engestrom,
,2021-12-15,21.3.2,Eric Engestrom,
,2021-12-29,21.3.3,Eric Engestrom,
,2022-01-12,21.3.4,Eric Engestrom,
,2022-01-26,21.3.5,Eric Engestrom,
,2022-02-09,21.3.6,Eric Engestrom,
,2022-02-23,21.3.7,Eric Engestrom,Last planned 21.3.x release.
22.0,2022-01-12,22.0.0-rc1,,
